…
``` r
icu_supply_table <- hospital %>%
  group_by(State) %>%
  summarize(
    Avg_ICU_Use = mean(icu_beds_used, na.rm = TRUE),
    Avg_N95_Days = mean(n95_respirators_days_available, na.rm = TRUE)
  ) %>%
  arrange(desc(Avg_ICU_Use))

icu_supply_table
```

    ## # A tibble: 56 × 3
    ##    State Avg_ICU_Use Avg_N95_Days
    ##    <chr>       <dbl>        <dbl>
    ##  1 AL           28           4   
    ##  2 AS           28           4   
    ##  3 CT           28           4   
    ##  4 DE           28           4   
    ##  5 IN           28           3.99
    ##  6 RI           28           4   
    ##  7 SD           28           4   
    ##  8 VT           28           4   
    ##  9 WV           28           4   
    ## 10 CO           28.0         4   
    ## # ℹ 46 more rows
…
comparison_table
```

    ## # A tibble: 56 × 4
    ##    State percent_low_ppe percent_staff_shortage     n
    ##    <chr>           <dbl>                  <dbl> <int>
    ##  1 MI              0                       95.7   140
    ##  2 TN              0                       84.6   104
    ##  3 IN              0                       73.6   121
    ##  4 WI              0.781                   70.3   128
    ##  5 MT              6.45                    64.5    62
    ##  6 VI              0                       50       2
    ##  7 VA              0                       44.8    87
    ##  8 NC              1.85                    43.5   108
    ##  9 CA              4.76                    37.8   336
    ## 10 MD              0                       32.6    46
    ## # ℹ 46 more rows
…
